<svg xmlns="http://www.w3.org/2000/svg" width="97.214" height="101.661" viewBox="0 0 97.214 101.661">
  <defs>
    <style>
      .cls-1 {
        fill: none;
      }

      .cls-2 {
        fill: #fff;
      }
    </style>
  </defs>
  <g id="Group_108" data-name="Group 108" transform="translate(-291.235 -84.37)">
    <rect id="Rectangle_41" data-name="Rectangle 41" class="cls-1" width="101.661" height="97.159" transform="translate(388.394 84.37) rotate(90)"/>
    <path id="Path_354" data-name="Path 354" class="cls-2" d="M405.125,219.587l-1.474,4.609a7.242,7.242,0,0,0-1.536-.366c-2.7-.236-4.547,2.272-4.547,2.272h0a5.1,5.1,0,0,1,.887-1.187,4.872,4.872,0,0,1,3.33-1.338,4.423,4.423,0,0,1,1.2.164l.356.1,1.4-4.312Zm-4.4,13.165.317.975h-9.5l-.085.273h9.977l-.411-1.229Zm-2.2-12.032v-1.657l-.331.29v1.691C398.311,220.929,398.422,220.822,398.532,220.72Zm.879,11.106a4.042,4.042,0,0,1-.879-3.008V226.4l-.331.216v1.954C398.2,230.268,398.582,231.315,399.411,231.826Zm-37.138-15.582a6.834,6.834,0,0,0-5.929,3.236,7.771,7.771,0,0,1,6.2-2.982c.184.007.3.021.3.021l1.848-4.4-.344-.007-1.733,4.132Zm18.252-4-2.386,5.646-.192.018a9.874,9.874,0,0,0-6.7,3.287,11.865,11.865,0,0,1,7.031-3.031l.193-.021,2.477-5.848ZM376.6,226.185a6.907,6.907,0,0,1-2.484,5.284c.114.081.228.161.338.247a6.908,6.908,0,0,0,2.477-5.281,7.137,7.137,0,0,0-2.92-5.738A7.146,7.146,0,0,1,376.6,226.185Zm-8.295,3.967a5.457,5.457,0,0,1-1.061-3.46,4.894,4.894,0,0,1,1.358-3.755c0-.149,0-.3,0-.443-.959.388-1.689,2.03-1.689,3.941a5.445,5.445,0,0,0,1.063,3.463,1.734,1.734,0,0,0,.335.261S368.312,230.152,368.309,230.152Zm-3.984,1.39a8.046,8.046,0,0,0,5.266,1.649,1.659,1.659,0,0,1,.9.3,1.9,1.9,0,0,0-1.23-.551A8.267,8.267,0,0,1,364.325,231.542Zm10.3.3a7.329,7.329,0,0,1,2.8,5.684c0,4-3.46,6.91-8.225,6.91h-.009a9.285,9.285,0,0,1-5.506-1.609,9.1,9.1,0,0,0,5.836,1.862h.007c4.767,0,8.228-2.907,8.228-6.91A7.379,7.379,0,0,0,374.625,231.846Zm-7.247,2.413a5.658,5.658,0,0,0-.845,3,3.741,3.741,0,0,0,1.411,3.3,4.032,4.032,0,0,1-1.082-3.044,5.613,5.613,0,0,1,.878-3.048Zm-24.762-16.294c-2.1,0-4.339,1.01-4.7,1.773l-.132.245-.652-.205-.089.207,1.012.332.18-.36c.347-.782,2.616-1.737,4.709-1.737h.263V218A3.916,3.916,0,0,0,342.615,217.966Zm5.533.025c0,.967,0,8.5,0,8.591,0,.349,0,.471-.535,1.213,0,.007.1.022.5-.417a1.3,1.3,0,0,0,.362-.9c0-.091,0-7.265,0-8.233a3.785,3.785,0,0,1,.6-.034,8.267,8.267,0,0,1,4.11,1.139,7.651,7.651,0,0,0-4.44-1.392A3.643,3.643,0,0,0,348.148,217.99Zm.007,10.92a3.387,3.387,0,0,0,1.336,2.917,3.8,3.8,0,0,1-1.01-2.886l0-.176Zm3.049,3.907.3.91H340.717l-.081.272h11.238l-.374-1.17Zm2.105-18.338a15.111,15.111,0,0,0,1.448,4.721l.174.339s-.652.224-.781.266l.118.313.994-.325-.173-.339a14.455,14.455,0,0,1-1.469-5.009Zm38.352,15.288a7.33,7.33,0,0,1-5.7,4.506,7.629,7.629,0,0,1-1.3.112h0a6.915,6.915,0,0,1-4.084-1.3A6.889,6.889,0,0,0,385,234.638h0a7.771,7.771,0,0,0,1.3-.112,7.326,7.326,0,0,0,5.741-4.63Zm-.105-4.071.053.281-8.829,2.947a3.489,3.489,0,0,0,1.209,1.473,3.46,3.46,0,0,1-.82-1.231l8.772-2.933-.053-.284a8.311,8.311,0,0,0-2.294-4.476,6.724,6.724,0,0,0-.759-.634c.148.12.289.247.429.381A8.307,8.307,0,0,1,391.556,225.7Zm-9.268.149c-.054-.556-.108-2.408,1.484-2.959a2.381,2.381,0,0,1,.691-.109,1.87,1.87,0,0,1,1.041.312,2.011,2.011,0,0,0-1.372-.567,2.369,2.369,0,0,0-.69.11c-1.593.552-1.538,2.4-1.486,2.957a5.194,5.194,0,0,0,.08.562c.085-.029.181-.06.275-.093C382.3,225.993,382.294,225.923,382.288,225.846Zm-21.272,6.1c-.528-.5-.916-1.408-.916-3.106V219.1l-.33.314v9.173C359.77,230.623,360.329,231.524,361.016,231.945Zm1.321.873.3.91h-9.41l-.082.272h9.864s-.239-.753-.373-1.163Z" transform="translate(-31.187 -86.971)"/>
    <path id="Path_355" data-name="Path 355" class="cls-2" d="M404.116,217.982l-1.4,4.345-.054-.012a4.793,4.793,0,0,0-1.283-.177,5.209,5.209,0,0,0-3.561,1.433,6.685,6.685,0,0,0-1.667,3.028,5.361,5.361,0,0,1,1.226-1.358l.091-.061v2.276c0,2.4.765,3.639,2.405,3.909l.038,0,.294.9h-9.461l.295-.9.035,0c1.16-.177,2.347-.775,2.347-3.909V223.8a2.52,2.52,0,0,0-2.279-2.58l-.055,0v-.843l.048-.013c.043-.008,4.425-.937,6.24-2.51l.094-.083v3.05a7.067,7.067,0,0,1,2.685-2.168A7.762,7.762,0,0,1,404.116,217.982Zm-42.6,13.5c-1.373-.222-2.482-1.092-2.482-4.011v-9.668c-1.246,1.181-6.338,2.553-6.338,2.553v.751a2.566,2.566,0,0,1,2.36,2.672v3.692c0,2.919-.931,3.789-2.423,4.011l-.26.8h9.4Zm-14.1-14.711c0-.237.4-.258.921-.258,2.124,0,4.636,1.022,5.02,1.952l.7-.231a14.746,14.746,0,0,1-1.5-5.148,47.125,47.125,0,0,1-14.579.039,15.629,15.629,0,0,1-1.5,5.118l.708.23c.523-.979,2.889-1.954,5.017-1.954.521,0,.92.014.92.26v10.69c0,2.919-1.471,3.789-2.962,4.011l-.258.8h10.735l-.261-.8c-1.453-.165-2.93-1.072-2.967-3.9a10.548,10.548,0,0,1-2.364,1.121,9.02,9.02,0,0,0,2.221-2.713.822.822,0,0,0,.139-.52c0-.1,0-8.695,0-8.695m43.678,11.413a7.1,7.1,0,0,1-5.588,4.651c-3.8.647-7.25-1.69-8.011-5.907a6.976,6.976,0,0,1,5.7-8.227c4.047-.643,6.918,2.139,7.637,5.941l-8.877,2.963-.013-.016a3.509,3.509,0,0,0,3.2,2.47,4.412,4.412,0,0,0,3.987-2.628Zm-9.7-2.723c1.526-.521,5.155-1.695,5.155-1.695a5.275,5.275,0,0,0-.447-1.022,2.657,2.657,0,0,0-3.17-1.538c-1.608.554-1.812,2.266-1.706,3.3a5.1,5.1,0,0,0,.168.951m-19.41-10.66,1.759-4.227c-2.913-.045-8.088,1.851-8.088,7.619a7.157,7.157,0,0,1,6.328-3.392m18.028-4.267c-2.234-.443-9.059,1.748-10.976,7.754l-.353-.007a7,7,0,0,0-7.186,6.789c0,2.2,1.514,6.424,7.354,6.424,1.478,0,3.042,2.085,3.042,4.652s-1.439,4-3.042,4c-1.726,0-3.052-1.429-3.052-4a5.815,5.815,0,0,1,1.062-3.416,4.215,4.215,0,0,0-5.964,3.851c0,3.474,3.018,6.416,7.891,6.416h.009c4.361,0,7.9-2.587,7.9-6.583a7.056,7.056,0,0,0-3.312-5.886,2.591,2.591,0,0,0-.259-.125,6.636,6.636,0,0,0,2.748-5.334,6.753,6.753,0,0,0-2.96-5.6,10.473,10.473,0,0,0-3.107,2.02,5.482,5.482,0,0,1,1.282,3.826,6.536,6.536,0,0,1-.647,2.948,2.524,2.524,0,0,1-.228.39,2.954,2.954,0,0,1-.385.463,1.8,1.8,0,0,1-2.493-.114,5.692,5.692,0,0,1-1.15-3.687c0-2.354,1.057-4.269,2.362-4.353a11.651,11.651,0,0,0,.025,1.714c1.947-3.263,4.317-5.759,8.938-6.217Z" transform="translate(-30.805 -85.86)"/>
    <path id="Path_356" data-name="Path 356" class="cls-2" d="M404.325,334.826v-5.8a8.411,8.411,0,0,1,.134-1.613h-1.694a7.485,7.485,0,0,1,.14,1.521v7.177h5.532l.672-1.407A19.756,19.756,0,0,1,404.325,334.826Zm-11.588-7.582a4.247,4.247,0,0,1-1.2.171H385.6a4.133,4.133,0,0,1-.532-.031c-.131.407-.475,1.431-.475,1.431a4.965,4.965,0,0,1,1.493-.16h1.731v7.458h1.418l0-7.46h1.687c.77,0,1.1.025,1.41.272A2.3,2.3,0,0,0,392.736,327.244Zm-12.02,3.763c-1.653-.643-2.17-.982-2.17-1.583,0-.575.534-1,1.427-1.092a4.26,4.26,0,0,1,2.948.641v-1.468l-.012,0a9.519,9.519,0,0,0-2.5-.329c-1.893,0-3.449.71-3.449,2.347s1.813,2.254,2.986,2.7c.809.313,2.292.7,2.292,1.608,0,1.108-1.785,1.322-2.474,1.322a5.684,5.684,0,0,1-3.1-.872c.108.383.465,1.632.465,1.632a9.613,9.613,0,0,0,2.661.445c2.6,0,3.884-1.1,3.884-2.5C383.673,332.421,382.849,331.8,380.717,331.007Zm-9.22.27c-.014-.015-2.445-3.236-2.445-3.236-.469-.628-.547-.678-1.031-.678s-.835.031-1.177.05c.149.167.419.485.8.972,0,0,2.852,3.748,2.961,3.889v3.838h1.419V332.37a.1.1,0,0,1,.021-.058l4-4.9h-1.848a1.751,1.751,0,0,1-.348.862C373.555,328.72,371.769,330.94,371.5,331.278Zm-4.652-3.863c.038,0-.04,0,0,0Zm-4.815,1.072-.065-.008h0Zm1.336,3.605h0l-.15-.2a4.067,4.067,0,0,0,1.424-.658,1.872,1.872,0,0,0-.168-3.32,4.822,4.822,0,0,0-2.431-.52c-.956.008-2.189.037-2.835.018a4.955,4.955,0,0,1,.159,1.367v7.331h1.42c0-.177-.005-7.551-.005-7.551a6.294,6.294,0,0,1,1.25-.088c1.277,0,1.928.47,1.932,1.2,0,.811-.643,1.167-1.372,1.437a5.858,5.858,0,0,1-.9.286c-.133.158.056.4.056.4a22.033,22.033,0,0,0,2.465,3.045c.965.961,1.458,1.269,2.192,1.326.408-.025,1.525-.094,1.532-.1C366.444,335.39,365.524,334.594,363.366,332.092Zm-9.184,2.958a3.439,3.439,0,0,1-3.6-3.47,2.978,2.978,0,0,1,.607-1.824,3.609,3.609,0,0,1,2.847-1.257,6.893,6.893,0,0,1,2.879.607v-1.548a14.072,14.072,0,0,0-2.953-.384,5.076,5.076,0,0,0-3.563,1.231,4.231,4.231,0,0,0-1.492,3.218c0,1.124.538,4.41,5.115,4.7a6.9,6.9,0,0,0,2.847-.4c.056-.108.842-1.608.958-1.848A6.714,6.714,0,0,1,354.181,335.05Zm41.5-7.634a3.091,3.091,0,0,1-.231,1.055l-3.483,7.644h1.154c.126-.264,1.466-3.171,1.466-3.171l3.884.006c.026.061,1.413,3.165,1.413,3.165h1.6c-.116-.25-3.989-8.6-4.034-8.7Zm-.717,4.495s1.548-3.61,1.569-3.659c.091.226,1.472,3.493,1.546,3.664Z" transform="translate(-39.263 -165.305)"/>
    <g id="Group_106" data-name="Group 106" transform="translate(291.238 84.37)">
      <path id="Path_357" data-name="Path 357" class="cls-1" d="M422.365,85.25a7.051,7.051,0,0,0-2.679,2.164V84.37l-.093.083c-1.812,1.569-6.185,2.5-6.228,2.5l-.048.013v.842l.055,0a2.515,2.515,0,0,1,2.274,2.575v3.646c0,3.129-1.184,3.725-2.342,3.9l-.035,0-.295.9h9.442l-.293-.9-.038,0c-1.637-.269-2.4-1.507-2.4-3.9V91.766l-.091.061a5.346,5.346,0,0,0-1.224,1.356,6.673,6.673,0,0,1,1.664-3.022,5.2,5.2,0,0,1,3.553-1.43,4.784,4.784,0,0,1,1.28.177l.055.012,1.4-4.336A7.749,7.749,0,0,0,422.365,85.25Z" transform="translate(-374.12 -84.37)"/>
      <path id="Path_358" data-name="Path 358" class="cls-1" d="M421.36,371.107a7.056,7.056,0,0,0,2.679-2.164v3.044l.094-.083c1.811-1.569,6.185-2.5,6.228-2.5l.048-.013v-.842l-.055,0a2.515,2.515,0,0,1-2.275-2.575v-3.647c0-3.128,1.184-3.725,2.342-3.9l.035,0,.294-.9h-9.442l.293.9.038,0c1.637.269,2.4,1.507,2.4,3.9v2.272l.091-.061a5.352,5.352,0,0,0,1.224-1.356,6.674,6.674,0,0,1-1.664,3.022,5.2,5.2,0,0,1-3.553,1.43,4.789,4.789,0,0,1-1.281-.176l-.054-.012-1.4,4.336A7.75,7.75,0,0,0,421.36,371.107Z" transform="translate(-377.136 -270.33)"/>
      <path id="Path_359" data-name="Path 359" class="cls-1" d="M292.125,212.276a7.052,7.052,0,0,0,2.164,2.679h-3.044l.083.094c1.569,1.811,2.5,6.185,2.5,6.228l.013.048h.841l0-.055A2.515,2.515,0,0,1,297.266,219h3.646c3.128,0,3.725,1.184,3.9,2.342l0,.035.9.294v-9.442l-.9.293,0,.038c-.269,1.637-1.507,2.4-3.9,2.4H298.64l.061.09a5.347,5.347,0,0,0,1.356,1.224,6.672,6.672,0,0,1-3.022-1.664,5.2,5.2,0,0,1-1.43-3.553,4.8,4.8,0,0,1,.176-1.281l.013-.054-4.336-1.4A7.749,7.749,0,0,0,292.125,212.276Z" transform="translate(-291.244 -168.757)"/>
      <path id="Path_360" data-name="Path 360" class="cls-1" d="M564.048,226.358a7.052,7.052,0,0,0-2.164-2.679h3.044l-.083-.094c-1.57-1.811-2.5-6.185-2.505-6.228l-.013-.048h-.841l0,.055a2.515,2.515,0,0,1-2.575,2.275h-3.646c-3.128,0-3.725-1.184-3.9-2.342l0-.035-.9-.294v9.442l.9-.293,0-.038c.269-1.637,1.508-2.4,3.9-2.4h2.272l-.061-.091a5.352,5.352,0,0,0-1.356-1.224,6.673,6.673,0,0,1,3.022,1.664,5.2,5.2,0,0,1,1.43,3.553,4.8,4.8,0,0,1-.176,1.281l-.013.054,4.336,1.4A7.749,7.749,0,0,0,564.048,226.358Z" transform="translate(-467.718 -174.645)"/>
    </g>
    <g id="Group_107" data-name="Group 107" transform="translate(331.578 99.18)">
      <path id="Path_361" data-name="Path 361" class="cls-2" d="M437.143,152.431c.1,1.185.037,3.19-.729,3.636a12.242,12.242,0,0,0-1.185-6.413,10.064,10.064,0,0,0-1.6-4.114,7.672,7.672,0,0,1,2.537,3.2A15.688,15.688,0,0,1,437.143,152.431Zm2.077,1.36a12.561,12.561,0,0,0-.194-2.566,6.339,6.339,0,0,0-2.055-2.883,12.341,12.341,0,0,1,1.168,3.853c.077,1.175.191,2.4.347,3.756.109.94.59,2.418.6,3.084.276-.117.331-.324.316-1.365C439.341,156.121,439.161,155.3,439.22,153.791Zm12.235-4.055a1.088,1.088,0,0,1,.826-.809,2.828,2.828,0,0,0-1.229-.4.893.893,0,0,0-.235.984A2.217,2.217,0,0,1,451.456,149.736Zm.673,1.01a1.226,1.226,0,0,1,1.246-.124,2.535,2.535,0,0,0-.394-1.022,1.462,1.462,0,0,0-1.091.474A1.424,1.424,0,0,1,452.128,150.746Zm-3.794.365a.432.432,0,0,0,.346-.248c.092-.152.169-.345.311-.581a1.779,1.779,0,0,1,1.027-.79.838.838,0,0,1-.169-.49.7.7,0,0,1,.173-.511,2.517,2.517,0,0,0-1.625,1.235,2.753,2.753,0,0,0-.347.883C447.994,150.952,448.175,151.111,448.334,151.111Zm4.435.078a1.127,1.127,0,0,0-.618.213v0a6.566,6.566,0,0,1-.136,1.031,1.123,1.123,0,0,1,1.222.194,7.636,7.636,0,0,0,.164-1.16A.977.977,0,0,0,452.769,151.188Zm-.935,1.786a4.518,4.518,0,0,1-.553.765.6.6,0,0,1,.465.145.5.5,0,0,1,.23.361.289.289,0,0,1-.05.162,3.692,3.692,0,0,1-.908.888,1.641,1.641,0,0,0,.041-.349.593.593,0,0,0-.426-.659,5.584,5.584,0,0,1-1.077.56,1.349,1.349,0,0,1,.383,1.09,7.581,7.581,0,0,1-1.47.525,2.721,2.721,0,0,0-.612-1.243c-.177.013-.357.016-.528.015a11.241,11.241,0,0,1-1.151-.067,2.014,2.014,0,0,1,1.213,1.487c-.382.049-1.023.1-1.4.1a5.362,5.362,0,0,0-2.052-2.147,5.329,5.329,0,0,1-1.151-.964,15.641,15.641,0,0,0-1.152-1.184,10.418,10.418,0,0,1,.85,4.043c.035,1.2-.424,3.577-.424,4.7a6.639,6.639,0,0,1-.649-2.781c-.071-1.4.1-3.034.027-3.883a5.309,5.309,0,0,0-.635-2.4,6.056,6.056,0,0,0-1.249-1.405,8.464,8.464,0,0,1,.985,4.146c.035.944-.037,1.891-.036,2.836,0,2.03.335,5.049,2.46,6.057a9.683,9.683,0,0,1,.02-3.656,18.655,18.655,0,0,0,.253-4.02,4.965,4.965,0,0,1,.787,2.778c0,.592-.075,1.146-.073,1.7a3.649,3.649,0,0,0,1.484,2.935c-1.286-2.4.468-5.261-2.258-8.616a5.735,5.735,0,0,1,1.963,2.536,10.785,10.785,0,0,0,5.171-1.058,5.484,5.484,0,0,0,2.71-2.863A1.429,1.429,0,0,0,451.834,152.975Zm-29.746,2.076a4.28,4.28,0,0,1,1.469,2.342,17.622,17.622,0,0,1-2.267-1.659,9.619,9.619,0,0,1-2.981-4.594,7.608,7.608,0,0,1,.069-4.661c-.3-3.265.431-4.365.828-5.962a1.351,1.351,0,0,0,.061-.414c0-.434-.232-.7-.512-.7-.234,0-.5.181-.684.6a4.759,4.759,0,0,1-.268-1.6,3.211,3.211,0,0,1,.892-2.362,1.121,1.121,0,0,0-1.059.1c-.115-1.019,1.338-2.492,1.821-2.913a5.7,5.7,0,0,1-.24-1.5,1.464,1.464,0,0,1,.192-.855c.269-.255.752-.027,1.4.357.225.142.627.383.949.54a6.047,6.047,0,0,1,3.392-.278,4.233,4.233,0,0,1,2.976.647c.07.061.4-.095.545-.149.2-.074.877-.335,1.1-.389a.406.406,0,0,1,.06-.007,2.839,2.839,0,0,1,.2,1.777,2.452,2.452,0,0,0-1.528-.818c.05.017.1.035.145.053a3.631,3.631,0,0,0-1.01-.232,1.926,1.926,0,0,1,1.2,1.107,1.4,1.4,0,0,0-1.542-.832,2.013,2.013,0,0,0-1.272-.527,1.786,1.786,0,0,1,.922.9,1.2,1.2,0,0,1,.092.921h0a.615.615,0,0,1-.21.049,1.02,1.02,0,0,0,.419.585,2.388,2.388,0,0,0,2.04.827c.624-.013,1.039.136,1.506,1a14.438,14.438,0,0,1,.017,1.468,1.65,1.65,0,0,0-1.441-1.773,1.972,1.972,0,0,1,.767,1.285,2.578,2.578,0,0,0-.556-.162,3.959,3.959,0,0,1-.493,2.911l.035-.03-.035.031c-.2.177-.408.334-.588.47,1-1.89,1.246-3.937.326-4.839a1.261,1.261,0,0,0-1.17-.266c-.005-.157-.2-.33-.491-.337a3.841,3.841,0,0,0-.6.108c-.176,0-.478-.2-.728-.2-.321,0-.429.241-.821.266a2.1,2.1,0,0,0-.566-.129,1.627,1.627,0,0,0-.233.094,1.627,1.627,0,0,1,.233-.094,1.57,1.57,0,0,0-1.349.411,1.6,1.6,0,0,0-.336,1.191,1.275,1.275,0,0,0-.535,1.062,2.835,2.835,0,0,0,.845,1.787c-.022-.1-.259-1.429.783-1.424a3.978,3.978,0,0,0,.161,3.017,7.686,7.686,0,0,0,.047,1.152.842.842,0,0,0,.073.167,8.974,8.974,0,0,0-.781-1.477c-.7-.958-1.624-.893-1.639-2.4-.322,0-.493.294-.62.52a2.532,2.532,0,0,1-.037-2.1v-.008l-.006,0a1.975,1.975,0,0,0-.913.6,3.135,3.135,0,0,1,1.57-2.22,3.117,3.117,0,0,0-2.84,2.893l0,.009,0-.007a1.505,1.505,0,0,1,.657-.546,5.838,5.838,0,0,0,1.6,3.839,2.762,2.762,0,0,1-1.247-.726,14.167,14.167,0,0,0-.668,3.889,5.922,5.922,0,0,0,.161,1.257c0-.017-.01-.034-.014-.051a4.021,4.021,0,0,0-.26,1.777A9.172,9.172,0,0,0,422.088,155.05Zm3.945-22.1a1.369,1.369,0,0,1,.533.917.439.439,0,0,0,.14-.337A.6.6,0,0,0,426.033,132.955Zm-1.538.307a.621.621,0,0,0,.193.43,1.168,1.168,0,0,1,.617-.927C424.688,132.79,424.494,133.031,424.494,133.262Zm-5.01,2.657a2.065,2.065,0,0,1,1.976-1c.5,0,1.015.075,1.47.075a1.321,1.321,0,0,0,1.267-.554h0a.745.745,0,0,0,.325-.582,1.735,1.735,0,0,1-.379-.23,1.617,1.617,0,0,1-.113-.85,1.229,1.229,0,0,1,.688-.883c-.792.068-1.157.3-1.185.675a.529.529,0,0,1,.016-.1,1.8,1.8,0,0,0-1.668.312,2.393,2.393,0,0,1,.921-.61c-1.531.234-1.881.624-1.881.933a.663.663,0,0,0,.226.444A2.572,2.572,0,0,0,419.484,135.919Zm15.327,16.418a14.489,14.489,0,0,0-.963-2.741c-.386-1.106-.65-3.49-1.206-4.786a3.891,3.891,0,0,0-1.147-1.414,4.8,4.8,0,0,1,.546,2.012c.067.964.518,1.851.328,2.679a5.609,5.609,0,0,1-1.1-3.31,4.932,4.932,0,0,0-.689-2.344c-.384-.66-1.07-1.053-1.245-1.445a11.248,11.248,0,0,1,1.387,5.724,6.5,6.5,0,0,0-1.073-1.663,5.283,5.283,0,0,1,.184.837,8.406,8.406,0,0,1,.717,3.688c-.237,2.114-1.792,3.532-3.226,5a23.516,23.516,0,0,0-2.785,2.731,4,4,0,0,0-.8,3.467,6.786,6.786,0,0,1,2.9-3.838,12.341,12.341,0,0,0,2.776-2.508,14.153,14.153,0,0,0,1.807-3.043,6.947,6.947,0,0,1,.218,1.857,4.279,4.279,0,0,1-.981,2.848c2.295-.865,2.054-3.546,1.985-4.376-.11-1.315-.891-2.321-1.219-3.725a6.093,6.093,0,0,1,1.623,2.434,12.535,12.535,0,0,1,1.023,2.275,5.524,5.524,0,0,1-.179,2.685A3.368,3.368,0,0,0,434.811,152.337Z" transform="translate(-417.629 -130.772)"/>
      <path id="Path_362" data-name="Path 362" class="cls-2" d="M429.46,138.364a2.7,2.7,0,0,1,.035.885c-.337,0-.715.087-.979.09h-.005v0c-.034.531,0,.973-.047,1.249-.016.119-.038.162-.059.158s-.07-.078-.123-.176c-.086-.164-.34-.979-.447-1.216h0a1.211,1.211,0,0,1-.651-.219,6.932,6.932,0,0,1,1.132-.515v0a6.434,6.434,0,0,0-2.382.461,2.122,2.122,0,0,1,.93-.518h0a1.25,1.25,0,0,1-.041-.42,3.766,3.766,0,0,1,.772-.064c.245,0,.522.01.662.012a5.179,5.179,0,0,0-1.977-.131,1.438,1.438,0,0,1,.576-.243h0a.872.872,0,0,1,.684-.747,2.1,2.1,0,0,1,.566.129,2.666,2.666,0,0,1,.6.628C428.925,137.982,429.414,138.095,429.46,138.364Zm-2.74,17.907c-1.569-1.758-3.295-2.707-4.378-6.207q-.073-.236-.142-.487a4.022,4.022,0,0,1,.26-1.777c.669,2.952,3.411,5.105,4.38,6.707.408-2.3,1.46-6.426,3.758-8.578-3.819.729-4.217,5.894-4.217,5.894-1.448-2.409-3.125-2.7-3.125-5.38a5.142,5.142,0,0,1,.079-.914,9.346,9.346,0,0,0,2.487,3.3l.005.006v-.017a4.325,4.325,0,0,1,2.267-3.207,3.683,3.683,0,0,0,.589.085c.418,0,.9-.209,1.289-1.247l0-.005a2.16,2.16,0,0,1-1.378.441,1.527,1.527,0,0,1-1.363-.559.84.84,0,0,1-.073-.167,7.687,7.687,0,0,1-.047-1.152c.139.278.3.472.46.472.086,0,.245-.146.444-.17,0-.132.052-.793.083-1.023.011-.1.033-.134.045-.132s.057.06.075.106c.083.222.206.654.3.919a3.185,3.185,0,0,1,1.131.076v-.005c.049-.147.2-.592.282-.844.026-.091.059-.161.087-.158s.041.041.054.157a5.62,5.62,0,0,1,.046.762c0,.069,0,.142,0,.215v.006h.01a1.683,1.683,0,0,0,.237.054c.121,0,.237-.058.236-.387a5.452,5.452,0,0,1,.168-1.571,4.946,4.946,0,0,1,.5-1.34,1.494,1.494,0,0,0,.8-1.282,1.422,1.422,0,0,0-.093-.51,2.916,2.916,0,0,1-.214.6,7.693,7.693,0,0,0-1.426-.226c.161.046.48.173.758.283.26.107.484.2.511.212a.613.613,0,0,1-.488.323.5.5,0,0,1-.165-.028,11.65,11.65,0,0,1-.511,1.155c-.059.121-.107.177-.134.177s-.032-.07-.033-.113c0-.236.1-1.337.1-1.337-.094-.01-.341-.1-.554-.13a2.665,2.665,0,0,0,.055-.569c0-.082-.005-.3-.005-.3-.006-.445.907-.777.9-1.14a1.263,1.263,0,0,1,1.17.267c.92.9.677,2.949-.326,4.839.179-.137.385-.294.588-.47a3.318,3.318,0,0,0,.71-.779,2.5,2.5,0,0,0,.372-1.034,1.731,1.731,0,0,1,.408.656,3.311,3.311,0,0,0,.232-1.1h0a14.438,14.438,0,0,0-.017-1.468c-.113-1.7-.625-2.222-1.685-2.326a.775.775,0,0,0,.377-.613c0-.278-.206-.553-.61-.763a2.661,2.661,0,0,0-.37-.154,2.453,2.453,0,0,1,1.528.818,2.834,2.834,0,0,0-.2-1.781c.284-.032.442.248.493.531a7.522,7.522,0,0,1,.041,1.408,5.344,5.344,0,0,1,1.381,3.362,1.655,1.655,0,0,0-.659-.209,3.577,3.577,0,0,1-.612,4.021.61.61,0,0,0-.767-.719.586.586,0,0,0-.445.57,1.016,1.016,0,0,0,.079.43,11.247,11.247,0,0,1,1.387,5.724,6.5,6.5,0,0,0-1.073-1.663,5.279,5.279,0,0,1,.184.837,7.928,7.928,0,0,1,.01,2.008,7.539,7.539,0,0,1-1.838,3.462,12.386,12.386,0,0,0-2.065,3.218,3.681,3.681,0,0,1,.053-2.471c.6-1.38,1.516-2.069,2.091-3.3a6.526,6.526,0,0,0,.393-4.712,5.68,5.68,0,0,1-.517,2.276c-.587,1.57-1.9,3.208-2.579,4.738a11.2,11.2,0,0,0-.705,4.828A7.153,7.153,0,0,0,426.72,156.271Zm5.272-18.153a2.27,2.27,0,0,0-.823-.174,1.116,1.116,0,0,0-.661.185l-.006,0h.007c.218.021.432.027.632.027C431.617,138.158,431.991,138.117,431.991,138.117Zm-.276-2.018a.966.966,0,0,0-.424.087.748.748,0,0,1-.379.109c-.216,0-.418-.132-.652-.091a1.854,1.854,0,0,0,.3-.732.48.48,0,0,1,.347-.132.816.816,0,0,1,.64.377.238.238,0,0,0,.152.061c.145,0,.256-.179.256-.392.013-.274-.421-1.065-1.567-.979a.852.852,0,0,1,.146.222,1.01,1.01,0,0,1-.406,1.078.615.615,0,0,1-.21.049,1.02,1.02,0,0,0,.419.585,2.1,2.1,0,0,0,1.075.374c.334,0,.622-.089.9-.089a.981.981,0,0,1,.7.283A1.507,1.507,0,0,0,431.715,136.1Zm-5.648,9.108a2.82,2.82,0,0,0-1.2-1.408,3.748,3.748,0,0,0-.081.849,4.1,4.1,0,0,0,.713,2.386A6.46,6.46,0,0,1,426.067,145.208Zm.341-8.785a1.914,1.914,0,0,0,.892-.23.745.745,0,0,0,.325-.582,1.736,1.736,0,0,1-.379-.23c-.106-.107-.636-.588-.61-1.057a.529.529,0,0,1,.016-.1,1.8,1.8,0,0,0-1.67.313.579.579,0,0,0-.156.441.444.444,0,0,0,.462.387,1.021,1.021,0,0,0,.435-.122,1.017,1.017,0,0,1,.557-.244.935.935,0,0,1,.478.13,2.764,2.764,0,0,0,.488.837.738.738,0,0,0-.192-.033c-.158,0-.265.07-.487.07a1.808,1.808,0,0,1-.968-.36.934.934,0,0,0-.321-.048,1.375,1.375,0,0,0-1.19.7,1.744,1.744,0,0,1,.694-.146C425.352,136.155,425.835,136.423,426.408,136.423Z" transform="translate(-420.732 -132.524)"/>
    </g>
  </g>
</svg>
